Machine Learning Overview
…
Review of Regression

Single Variable

Pick the poshest province.

wine <- wine %>%
  mutate(bordeaux = (province == "Bordeaux"))
wine <- wine %>% drop_na(bordeaux)
top_n(wine, 10, bordeaux)

# A tibble: 3,774 × 16
      id country description designation points price province region_1 region_2
   <dbl> <chr>   <chr>       <chr>        <dbl> <dbl> <chr>    <chr>    <chr>   
 1    53 France  Fruity and… La Fleur d…     85    15 Bordeaux Bordeau… <NA>    
 2   136 France  This wine'… <NA>            91    50 Bordeaux Saint-É… <NA>    
 3   419 France  A smooth, … <NA>            89    20 Bordeaux Graves   <NA>    
 4   477 France  An interes… <NA>            92    65 Bordeaux Pomerol  <NA>    
 5   573 France  Fruity and… <NA>            89    14 Bordeaux Bordeau… <NA>    
 6   575 France  This is a … <NA>            89    14 Bordeaux Bordeau… <NA>    
 7   576 France  From a Gra… Les Terras…     89    37 Bordeaux Saint-É… <NA>    
 8   578 France  A ripe per… Château Je…     89    15 Bordeaux Bordeaux <NA>    
 9   792 France  The 45% Ca… La Sérénit…     90    30 Bordeaux Médoc    <NA>    
10   795 France  This is th… Divin de C…     90    35 Bordeaux Saint-É… <NA>    
# ℹ 3,764 more rows
# ℹ 7 more variables: taster_name <chr>, taster_twitter_handle <chr>,
#   title <chr>, variety <chr>, winery <chr>, year <dbl>, bordeaux <lgl>
…
