Feature Engineering & Variable Selection
…
What kind of problem might it help with?

Year-on-Year Change Example

wine %>%
  group_by(winery, year) %>%
  summarize(avg_score = mean(points), num_reviews = n_distinct(id)) %>%
  select(year, winery, num_reviews, avg_score) %>%
  arrange(winery, year) %>%
  mutate(score_change = avg_score - lag(avg_score)) %>%
  drop_na(score_change) %>%
  summarize(mean(score_change))

# A tibble: 8,409 × 2
   winery           `mean(score_change)`
   <chr>                           <dbl>
 1 100 Percent Wine               -1.5  
 2 12 Linajes                     -0.333
 3 12C Wines                       1.25 
 4 14 Hands                       -0.111
 5 2 Lads                         -2.25 
 6 2 Up                            0    
 7 21 Grams                        1    
 8 29 & Oak Wines                 -2    
 9 2Hawk                           0.75 
10 2Plank                         -1.25 
# ℹ 8,399 more rows
…
polynomial transforms

lags!

Standardize

list(normalized = ~(scale(.) %>% as.vector)): :

scale(.): Standardizes the “points” column.

%>% as.vector: Converts back to a vector.

wine %>% mutate_at("points", list(standardized = ~ (scale(.) %>% as.vector())))

# A tibble: 89,556 × 16
      id country description designation points price province region_1 region_2
   <dbl> <chr>   <chr>       <chr>        <dbl> <dbl> <chr>    <chr>    <chr>   
 1     1 Portug… This is ri… Avidagos        87    15 Douro    <NA>     <NA>    
 2     2 US      Tart and s… <NA>            87    14 Oregon   Willame… Willame…
 3     3 US      Pineapple … Reserve La…     87    13 Michigan Lake Mi… <NA>    
 4     4 US      Much like … Vintner's …     87    65 Oregon   Willame… Willame…
 5     5 Spain   Blackberry… Ars In Vit…     87    15 Norther… Navarra  <NA>    
 6     6 Italy   Here's a b… Belsito         87    16 Sicily … Vittoria <NA>    
 7     7 France  This dry a… <NA>            87    24 Alsace   Alsace   <NA>    
 8     8 Germany Savory dri… Shine           87    12 Rheinhe… <NA>     <NA>    
 9     9 France  This has g… Les Natures     87    27 Alsace   Alsace   <NA>    
10    10 US      Soft, supp… Mountain C…     87    19 Califor… Napa Va… Napa    
# ℹ 89,546 more rows
# ℹ 7 more variables: taster_name <chr>, taster_twitter_handle <chr>,
#   title <chr>, variety <chr>, winery <chr>, year <dbl>, standardized <dbl>
…
